[gd_scene load_steps=2 format=2]

[ext_resource path="res://blobs/blob.gd" type="Script" id=1]

[node name="blobs" type="Node2D"]

[node name="blob-base" type="Node2D" parent="."]
position = Vector2( 168, 160 )
script = ExtResource( 1 )
corners = 9
precision = 3.0
deviation = 0.936
debug = true
origin_force = 0.3
random_force = 3.0
