[gd_scene load_steps=4 format=2]

[ext_resource path="res://heightmap/mapper/mapper.gd" type="Script" id=1]
[ext_resource path="res://heightmap/textures/vtest.png" type="Texture" id=2]
[ext_resource path="res://ui/themes/5020_normal.theme" type="Theme" id=3]

[node name="mapper" type="Node2D"]
script = ExtResource( 1 )
traveller_num = 10
update_display = true

[node name="map" type="Sprite" parent="."]
position = Vector2( 256, 256 )
texture = ExtResource( 2 )

[node name="travellers" type="Node2D" parent="."]

[node name="debug" type="Node2D" parent="."]

[node name="world" type="Node2D" parent="."]

[node name="tmpls" type="Node2D" parent="."]
visible = false

[node name="color" type="Polygon2D" parent="tmpls"]
polygon = PoolVector2Array( 0, 0, 20, 0, 20, 20, 0, 20 )

[node name="traveller" type="Polygon2D" parent="tmpls"]
color = Color( 1, 0, 0, 1 )
polygon = PoolVector2Array( -2, -2, 2, -2, 2, 2, -2, 2 )

[node name="slope" type="Polygon2D" parent="tmpls"]
color = Color( 0, 1, 0.929412, 1 )
polygon = PoolVector2Array( -10, -1, 10, -1, 10, 1, -10, 1 )

[node name="info" type="Label" parent="tmpls"]
margin_right = 40.0
margin_bottom = 14.0
theme = ExtResource( 3 )
custom_colors/font_color = Color( 1, 1, 1, 1 )
__meta__ = {
"_edit_use_anchors_": false
}
